#
# This matrix was produced by "pam" Version 1.0.6 [28-Jul-93]
#
# PAM 120 substitution matrix, scale = 0.0693200
#
# Expected score = -8.22, Entropy = 0.979 bits
#
# Lowest score = -42, Highest score = 62
#
	A	R	N	D	C	Q	E	G	H	I	L	K	M	F	P	S	T	W	Y	V	B	Z	X
A	16	-14	-3	-2	-14	-6	-1	3	-13	-6	-14	-12	-9	-21	3	6	6	-33	-20	0	-2	-3	-4
R	-14	32	-6	-16	-20	3	-14	-20	4	-12	-20	12	-5	-25	-4	-4	-10	4	-26	-17	-11	-4	-9
N	-3	-6	20	12	-23	-1	4	-2	8	-12	-18	4	-15	-21	-8	5	1	-22	-10	-15	16	2	-4
D	-2	-16	12	25	-33	4	17	-2	-2	-16	-27	-5	-21	-35	-13	-2	-6	-39	-26	-17	20	13	-8
C	-14	-20	-23	-33	44	-33	-33	-22	-20	-14	-37	-34	-32	-29	-18	-2	-16	-42	-4	-13	-28	-33	-20
Q	-6	3	-1	4	-33	28	12	-13	13	-16	-11	0	-7	-30	-2	-8	-9	-30	-26	-14	2	21	-6
E	-1	-14	4	17	-33	12	24	-4	-3	-13	-22	-5	-15	-34	-9	-5	-8	-42	-24	-13	13	20	-7
G	3	-20	-2	-2	-22	-13	-4	25	-18	-20	-26	-15	-19	-26	-9	3	-7	-39	-32	-11	-2	-8	-9
H	-13	4	8	-2	-20	13	-3	-18	35	-19	-13	-8	-19	-13	-5	-9	-13	-17	-3	-15	4	6	-8
I	-6	-12	-12	-16	-14	-16	-13	-20	-19	28	6	-13	7	1	-17	-12	-1	-32	-11	17	-14	-14	-7
L	-14	-20	-18	-27	-37	-11	-22	-26	-13	6	27	-19	13	2	-17	-19	-13	-13	-12	3	-22	-16	-11
K	-12	12	4	-5	-34	0	-5	-15	-8	-13	-19	25	2	-33	-12	-4	-3	-24	-25	-19	0	-3	-8
M	-9	-5	-15	-21	-32	-7	-15	-19	-19	7	13	2	40	-4	-16	-11	-6	-28	-21	5	-18	-11	-8
F	-21	-25	-21	-35	-29	-30	-34	-26	-13	1	2	-33	-4	38	-26	-17	-20	-5	22	-13	-27	-32	-17
P	3	-4	-8	-13	-18	-2	-9	-9	-5	-17	-17	-12	-16	-26	31	3	-3	-33	-31	-11	-11	-5	-8
S	6	-4	5	-2	-2	-8	-5	3	-9	-12	-19	-4	-11	-17	3	16	8	-12	-16	-10	1	-6	-3
T	6	-10	1	-6	-16	-9	-8	-7	-13	-1	-13	-3	-6	-20	-3	8	21	-30	-16	-1	-2	-9	-4
W	-33	4	-22	-39	-42	-30	-42	-39	-17	-32	-13	-24	-28	-5	-33	-12	-30	62	-8	-38	-29	-35	-25
Y	-20	-26	-10	-26	-4	-26	-24	-32	-3	-11	-12	-25	-21	22	-31	-16	-16	-8	42	-17	-16	-25	-16
V	0	-17	-15	-17	-13	-14	-13	-11	-15	17	3	-19	5	-13	-11	-10	-1	-38	-17	25	-16	-14	-7
B	-2	-11	16	20	-28	2	13	-2	4	-14	-22	0	-18	-27	-11	1	-2	-29	-16	-16	18	9	-6
Z	-3	-4	2	13	-33	21	20	-8	6	-14	-16	-3	-11	-32	-5	-6	-9	-35	-25	-14	9	21	-7
X	-4	-9	-4	-8	-20	-6	-7	-9	-8	-7	-11	-8	-8	-17	-8	-3	-4	-25	-16	-7	-6	-7	-8