#
# This matrix was produced by "pam" Version 1.0.6 [28-Jul-93]
#
# PAM 190 substitution matrix, scale = ln(2)/3 = 0.231049
#
# Expected score = -1.35, Entropy = 0.547 bits
#
# Lowest score = -9, Highest score = 18
#
	A	R	N	D	C	Q	E	G	H	I	L	K	M	F	P	S	T	W	Y	V	B	Z	X
A	3	-2	0	0	-3	-1	0	1	-2	-1	-3	-2	-2	-5	1	1	2	-7	-4	0	0	0	0
R	-2	8	-1	-2	-5	1	-2	-4	2	-3	-4	4	-1	-6	0	-1	-2	2	-5	-3	-1	0	-1
N	0	-1	3	3	-5	1	2	0	2	-2	-4	1	-3	-4	-1	1	0	-5	-2	-3	3	1	-1
D	0	-2	3	5	-7	2	4	0	0	-3	-5	0	-4	-7	-2	0	-1	-8	-5	-3	4	3	-1
C	-3	-5	-5	-7	13	-7	-7	-4	-4	-3	-8	-7	-7	-6	-4	0	-3	-9	0	-3	-6	-7	-4
Q	-1	1	1	2	-7	6	3	-2	3	-3	-2	1	-1	-6	0	-1	-1	-6	-5	-3	1	4	-1
E	0	-2	2	4	-7	3	5	0	0	-3	-4	-1	-3	-7	-1	0	-1	-9	-5	-3	3	4	-1
G	1	-4	0	0	-4	-2	0	6	-3	-4	-5	-3	-4	-6	-1	1	-1	-9	-7	-2	0	-1	-1
H	-2	2	2	0	-4	3	0	-3	8	-3	-3	-1	-3	-2	-1	-1	-2	-3	0	-3	1	2	-1
I	-1	-3	-2	-3	-3	-3	-3	-4	-3	6	2	-3	2	1	-3	-2	0	-7	-2	4	-3	-3	-1
L	-3	-4	-4	-5	-8	-2	-4	-5	-3	2	7	-4	4	2	-3	-4	-2	-3	-2	2	-5	-3	-2
K	-2	4	1	0	-7	1	-1	-3	-1	-3	-4	6	1	-7	-2	0	0	-5	-6	-3	0	0	-1
M	-2	-1	-3	-4	-7	-1	-3	-4	-3	2	4	1	9	0	-3	-2	-1	-6	-4	2	-3	-2	-1
F	-5	-6	-4	-7	-6	-6	-7	-6	-2	1	2	-7	0	10	-6	-4	-4	0	7	-2	-6	-7	-3
P	1	0	-1	-2	-4	0	-1	-1	-1	-3	-3	-2	-3	-6	7	1	0	-7	-6	-2	-1	-1	-1
S	1	-1	1	0	0	-1	0	1	-1	-2	-4	0	-2	-4	1	3	2	-3	-4	-2	1	-1	0
T	2	-2	0	-1	-3	-1	-1	-1	-2	0	-2	0	-1	-4	0	2	4	-6	-3	0	0	-1	0
W	-7	2	-5	-8	-9	-6	-9	-9	-3	-7	-3	-5	-6	0	-7	-3	-6	18	-1	-8	-6	-7	-5
Y	-4	-5	-2	-5	0	-5	-5	-7	0	-2	-2	-6	-4	7	-6	-4	-3	-1	11	-3	-4	-5	-3
V	0	-3	-3	-3	-3	-3	-3	-2	-3	4	2	-3	2	-2	-2	-2	0	-8	-3	6	-3	-3	-1
B	0	-1	3	4	-6	1	3	0	1	-3	-5	0	-3	-6	-1	1	0	-6	-4	-3	4	2	-1
Z	0	0	1	3	-7	4	4	-1	2	-3	-3	0	-2	-7	-1	-1	-1	-7	-5	-3	2	4	-1
X	0	-1	-1	-1	-4	-1	-1	-1	-1	-1	-2	-1	-1	-3	-1	0	0	-5	-3	-1	-1	-1	-1