#
# This matrix was produced by "pam" Version 1.0.6 [28-Jul-93]
#
# PAM 230 substitution matrix, scale = ln(2)/3 = 0.231049
#
# Expected score = -0.991, Entropy = 0.407 bits
#
# Lowest score = -8, Highest score = 17
#
	A	R	N	D	C	Q	E	G	H	I	L	K	M	F	P	S	T	W	Y	V	B	Z	X
A	2	-2	0	0	-2	-1	0	1	-2	-1	-2	-1	-1	-4	1	1	1	-6	-4	0	0	0	0
R	-2	7	0	-2	-4	1	-1	-3	2	-2	-3	4	-1	-5	0	0	-1	2	-5	-3	-1	0	-1
N	0	0	2	2	-4	1	1	0	2	-2	-3	1	-2	-4	-1	1	0	-4	-2	-2	2	1	0
D	0	-2	2	4	-6	2	4	1	1	-3	-4	0	-3	-6	-1	0	0	-7	-5	-2	3	3	-1
C	-2	-4	-4	-6	12	-6	-6	-4	-4	-2	-7	-6	-6	-5	-3	0	-2	-8	0	-2	-5	-6	-3
Q	-1	1	1	2	-6	5	3	-1	3	-2	-2	1	-1	-5	0	-1	-1	-5	-4	-2	1	4	-1
E	0	-1	1	4	-6	3	4	0	1	-2	-4	0	-2	-6	-1	0	-1	-8	-5	-2	3	4	-1
G	1	-3	0	1	-4	-1	0	5	-2	-3	-4	-2	-3	-5	-1	1	0	-7	-6	-2	0	-1	-1
H	-2	2	2	1	-4	3	1	-2	7	-3	-2	0	-2	-2	0	-1	-2	-3	0	-2	1	2	-1
I	-1	-2	-2	-3	-2	-2	-2	-3	-3	5	2	-2	2	1	-2	-2	0	-6	-1	4	-2	-2	-1
L	-2	-3	-3	-4	-7	-2	-4	-4	-2	2	6	-3	4	2	-3	-3	-2	-2	-1	2	-4	-3	-2
K	-1	4	1	0	-6	1	0	-2	0	-2	-3	5	0	-6	-1	0	0	-4	-5	-3	1	0	-1
M	-1	-1	-2	-3	-6	-1	-2	-3	-2	2	4	0	7	0	-2	-2	-1	-5	-3	2	-2	-2	-1
F	-4	-5	-4	-6	-5	-5	-6	-5	-2	1	2	-6	0	9	-5	-3	-3	0	7	-1	-5	-6	-3
P	1	0	-1	-1	-3	0	-1	-1	0	-2	-3	-1	-2	-5	6	1	0	-6	-5	-1	-1	0	-1
S	1	0	1	0	0	-1	0	1	-1	-2	-3	0	-2	-3	1	2	2	-3	-3	-1	0	0	0
T	1	-1	0	0	-2	-1	-1	0	-2	0	-2	0	-1	-3	0	2	3	-6	-3	0	0	-1	0
W	-6	2	-4	-7	-8	-5	-8	-7	-3	-6	-2	-4	-5	0	-6	-3	-6	17	0	-7	-6	-6	-4
Y	-4	-5	-2	-5	0	-4	-5	-6	0	-1	-1	-5	-3	7	-5	-3	-3	0	10	-3	-3	-5	-3
V	0	-3	-2	-2	-2	-2	-2	-2	-2	4	2	-3	2	-1	-1	-1	0	-7	-3	5	-2	-2	-1
B	0	-1	2	3	-5	1	3	0	1	-2	-4	1	-2	-5	-1	0	0	-6	-3	-2	3	2	-1
Z	0	0	1	3	-6	4	4	-1	2	-2	-3	0	-2	-6	0	0	-1	-6	-5	-2	2	4	-1
X	0	-1	0	-1	-3	-1	-1	-1	-1	-1	-2	-1	-1	-3	-1	0	0	-4	-3	-1	-1	-1	-1