#
# This matrix was produced by "pam" Version 1.0.6 [28-Jul-93]
#
# PAM 280 substitution matrix, scale = ln(2)/4 = 0.173287
#
# Expected score = -0.916, Entropy = 0.289 bits
#
# Lowest score = -9, Highest score = 22
#
	A	R	N	D	C	Q	E	G	H	I	L	K	M	F	P	S	T	W	Y	V	B	Z	X
A	2	-2	0	0	-2	0	0	2	-1	-1	-2	-1	-1	-4	1	1	1	-7	-4	0	0	0	0
R	-2	7	0	-1	-4	2	-1	-3	2	-2	-3	4	0	-5	0	0	-1	3	-5	-3	-1	0	-1
N	0	0	2	2	-4	1	2	1	2	-2	-3	1	-2	-4	0	1	1	-5	-3	-2	2	1	0
D	0	-1	2	4	-6	2	4	1	1	-3	-5	0	-3	-7	-1	0	0	-8	-5	-2	4	3	-1
C	-2	-4	-4	-6	15	-6	-6	-4	-4	-3	-7	-6	-6	-5	-3	0	-3	-9	1	-2	-5	-6	-3
Q	0	2	1	2	-6	4	3	-1	3	-2	-2	1	-1	-5	0	0	-1	-6	-5	-2	2	4	-1
E	0	-1	2	4	-6	3	4	0	1	-2	-4	0	-2	-6	0	0	0	-8	-5	-2	3	4	-1
G	2	-3	1	1	-4	-1	0	6	-2	-3	-5	-2	-3	-6	0	1	0	-8	-6	-1	1	0	-1
H	-1	2	2	1	-4	3	1	-2	8	-3	-2	0	-2	-2	0	-1	-1	-3	0	-3	1	2	-1
I	-1	-2	-2	-3	-3	-2	-2	-3	-3	5	3	-2	3	1	-2	-2	0	-6	-1	4	-2	-2	-1
L	-2	-3	-3	-5	-7	-2	-4	-5	-2	3	7	-3	5	2	-3	-3	-2	-2	-1	2	-4	-3	-1
K	-1	4	1	0	-6	1	0	-2	0	-2	-3	6	0	-6	-1	0	0	-4	-5	-3	1	1	-1
M	-1	0	-2	-3	-6	-1	-2	-3	-2	3	5	0	7	0	-2	-2	-1	-5	-3	2	-2	-2	-1
F	-4	-5	-4	-7	-5	-5	-6	-6	-2	1	2	-6	0	11	-5	-4	-4	1	9	-1	-5	-6	-3
P	1	0	0	-1	-3	0	0	0	0	-2	-3	-1	-2	-5	7	1	1	-7	-6	-1	-1	0	-1
S	1	0	1	0	0	0	0	1	-1	-2	-3	0	-2	-4	1	2	1	-3	-3	-1	1	0	0
T	1	-1	1	0	-3	-1	0	0	-1	0	-2	0	-1	-4	1	1	3	-6	-3	0	0	0	0
W	-7	3	-5	-8	-9	-6	-8	-8	-3	-6	-2	-4	-5	1	-7	-3	-6	22	0	-7	-6	-7	-5
Y	-4	-5	-3	-5	1	-5	-5	-6	0	-1	-1	-5	-3	9	-6	-3	-3	0	13	-3	-4	-5	-3
V	0	-3	-2	-2	-2	-2	-2	-1	-3	4	2	-3	2	-1	-1	-1	0	-7	-3	5	-2	-2	-1
B	0	-1	2	4	-5	2	3	1	1	-2	-4	1	-2	-5	-1	1	0	-6	-4	-2	3	2	-1
Z	0	0	1	3	-6	4	4	0	2	-2	-3	1	-2	-6	0	0	0	-7	-5	-2	2	4	-1
X	0	-1	0	-1	-3	-1	-1	-1	-1	-1	-1	-1	-1	-3	-1	0	0	-5	-3	-1	-1	-1	-1