#
# This matrix was produced by "pam" Version 1.0.6 [28-Jul-93]
#
# PAM 320 substitution matrix, scale = ln(2)/4 = 0.173287
#
# Expected score = -0.741, Entropy = 0.224 bits
#
# Lowest score = -8, Highest score = 22
#
	A	R	N	D	C	Q	E	G	H	I	L	K	M	F	P	S	T	W	Y	V	B	Z	X
A	1	-1	0	1	-2	0	0	1	-1	0	-2	-1	-1	-4	1	1	1	-6	-4	0	0	0	0
R	-1	6	0	-1	-4	1	-1	-2	2	-2	-3	4	0	-5	0	0	-1	3	-4	-2	0	0	-1
N	0	0	2	2	-4	1	2	1	2	-2	-3	1	-2	-4	0	1	0	-4	-2	-2	2	1	0
D	1	-1	2	4	-5	2	3	1	1	-2	-4	0	-2	-6	0	0	0	-7	-5	-2	3	3	-1
C	-2	-4	-4	-5	15	-5	-5	-3	-4	-2	-6	-6	-5	-4	-3	0	-2	-8	1	-2	-4	-5	-3
Q	0	1	1	2	-5	4	2	-1	3	-2	-2	1	-1	-5	0	0	0	-5	-4	-2	2	3	0
E	0	-1	2	3	-5	2	4	1	1	-2	-3	0	-2	-5	0	0	0	-7	-5	-2	3	3	0
G	1	-2	1	1	-3	-1	1	5	-2	-2	-4	-1	-3	-5	0	1	0	-7	-5	-1	1	0	-1
H	-1	2	2	1	-4	3	1	-2	6	-2	-2	0	-2	-2	0	-1	-1	-3	0	-2	1	2	0
I	0	-2	-2	-2	-2	-2	-2	-2	-2	4	3	-2	2	1	-2	-1	0	-5	-1	4	-2	-2	0
L	-2	-3	-3	-4	-6	-2	-3	-4	-2	3	7	-3	4	3	-2	-3	-2	-2	0	2	-3	-3	-1
K	-1	4	1	0	-6	1	0	-1	0	-2	-3	5	0	-5	-1	0	0	-3	-5	-2	1	1	-1
M	-1	0	-2	-2	-5	-1	-2	-3	-2	2	4	0	6	1	-2	-1	-1	-4	-2	2	-2	-2	0
F	-4	-5	-4	-6	-4	-5	-5	-5	-2	1	3	-5	1	11	-5	-3	-3	1	9	-1	-5	-5	-2
P	1	0	0	0	-3	0	0	0	0	-2	-2	-1	-2	-5	6	1	1	-6	-5	-1	0	0	0
S	1	0	1	0	0	0	0	1	-1	-1	-3	0	-1	-3	1	1	1	-3	-3	-1	1	0	0
T	1	-1	0	0	-2	0	0	0	-1	0	-2	0	-1	-3	1	1	2	-5	-3	0	0	0	0
W	-6	3	-4	-7	-8	-5	-7	-7	-3	-5	-2	-3	-4	1	-6	-3	-5	22	1	-6	-6	-6	-4
Y	-4	-4	-2	-5	1	-4	-5	-5	0	-1	0	-5	-2	9	-5	-3	-3	1	12	-2	-3	-4	-2
V	0	-2	-2	-2	-2	-2	-2	-1	-2	4	2	-2	2	-1	-1	-1	0	-6	-2	4	-2	-2	0
B	0	0	2	3	-4	2	3	1	1	-2	-3	1	-2	-5	0	1	0	-6	-3	-2	2	2	0
Z	0	0	1	3	-5	3	3	0	2	-2	-3	1	-2	-5	0	0	0	-6	-4	-2	2	3	0
X	0	-1	0	-1	-3	0	0	-1	0	0	-1	-1	0	-2	0	0	0	-4	-2	0	0	0	-1