#
# This matrix was produced by "pam" Version 1.0.6 [28-Jul-93]
#
# PAM 400 substitution matrix, scale = ln(2)/5 = 0.138629
#
# Expected score = -0.521, Entropy = 0.139 bits
#
# Lowest score = -8, Highest score = 26
#
	A	R	N	D	C	Q	E	G	H	I	L	K	M	F	P	S	T	W	Y	V	B	Z	X
A	1	-1	0	1	-2	0	1	1	-1	0	-2	-1	-1	-3	1	1	1	-6	-3	0	1	0	0
R	-1	5	1	0	-4	1	0	-2	2	-2	-3	4	0	-4	0	0	0	3	-4	-2	0	1	0
N	0	1	1	2	-3	1	2	1	1	-1	-3	1	-1	-3	0	1	0	-4	-3	-1	2	1	0
D	1	0	2	3	-5	2	3	1	1	-2	-3	1	-2	-5	0	1	0	-7	-4	-2	2	2	0
C	-2	-4	-3	-5	17	-5	-5	-3	-3	-2	-6	-5	-5	-4	-2	0	-2	-8	1	-2	-4	-5	-3
Q	0	1	1	2	-5	3	2	0	3	-2	-2	1	-1	-4	0	0	0	-5	-4	-1	2	2	0
E	1	0	2	3	-5	2	3	1	1	-2	-3	1	-2	-5	0	0	0	-7	-4	-1	2	3	0
G	1	-2	1	1	-3	0	1	4	-1	-2	-3	-1	-2	-5	0	1	1	-7	-5	-1	1	0	0
H	-1	2	1	1	-3	3	1	-1	5	-2	-2	1	-1	-2	0	0	-1	-2	0	-2	1	2	0
I	0	-2	-1	-2	-2	-2	-2	-2	-2	4	3	-2	2	2	-1	-1	0	-5	0	3	-2	-2	0
L	-2	-3	-3	-3	-6	-2	-3	-3	-2	3	7	-2	4	3	-2	-2	-1	-2	0	3	-3	-2	-1
K	-1	4	1	1	-5	1	1	-1	1	-2	-2	4	0	-5	0	0	0	-3	-4	-2	1	1	0
M	-1	0	-1	-2	-5	-1	-2	-2	-1	2	4	0	5	1	-1	-1	0	-4	-1	2	-2	-1	0
F	-3	-4	-3	-5	-4	-4	-5	-5	-2	2	3	-5	1	11	-4	-3	-3	2	10	0	-4	-5	-2
P	1	0	0	0	-2	0	0	0	0	-1	-2	0	-1	-4	5	1	1	-6	-5	-1	0	0	0
S	1	0	1	1	0	0	0	1	0	-1	-2	0	-1	-3	1	1	1	-3	-3	-1	1	0	0
T	1	0	0	0	-2	0	0	1	-1	0	-1	0	0	-3	1	1	1	-5	-3	0	0	0	0
W	-6	3	-4	-7	-8	-5	-7	-7	-2	-5	-2	-3	-4	2	-6	-3	-5	26	1	-6	-5	-6	-4
Y	-3	-4	-3	-4	1	-4	-4	-5	0	0	0	-4	-1	10	-5	-3	-3	1	13	-2	-3	-4	-2
V	0	-2	-1	-2	-2	-1	-1	-1	-2	3	3	-2	2	0	-1	-1	0	-6	-2	4	-1	-1	0
B	1	0	2	2	-4	2	2	1	1	-2	-3	1	-2	-4	0	1	0	-5	-3	-1	2	2	0
Z	0	1	1	2	-5	2	3	0	2	-2	-2	1	-1	-5	0	0	0	-6	-4	-1	2	3	0
X	0	0	0	0	-3	0	0	0	0	0	-1	0	0	-2	0	0	0	-4	-2	0	0	0	-1